<svg width="10" height="22" viewBox="0 0 10 22" fill="none" xmlns="http://www.w3.org/2000/svg">
<path d="M5.10156 10.8203H8.32031V11.8984H5.10156V15.2266H4.01562V11.8984H0.8125V10.8203H4.01562V7.47656H5.10156V10.8203Z" fill="#373A3C"/>
</svg>
