<svg width="34" height="34" viewBox="0 0 34 34" fill="none" xmlns="http://www.w3.org/2000/svg">
<path fill-rule="evenodd" clip-rule="evenodd" d="M0.5 17C0.5 26.1127 7.8873 33.5 17 33.5C26.1127 33.5 33.5 26.1127 33.5 17C33.5 7.8873 26.1127 0.5 17 0.5C7.8873 0.5 0.5 7.8873 0.5 17ZM18.1719 17L22.8203 12.3516L21.6484 11.1797L17 15.8281L12.3516 11.1797L11.1797 12.3516L15.8281 17L11.1797 21.6484L12.3516 22.8203L17 18.1719L21.6484 22.8203L22.8203 21.6484L18.1719 17Z" fill="white"/>
</svg>
